<?xml version="1.0" encoding="UTF-8"?>
<svg width="16px" height="14px" viewBox="0 0 16 14" version="1.1" xmlns="http://www.w3.org/2000/svg" xmlns:xlink="http://www.w3.org/1999/xlink">
    <!-- Generator: Sketch 63.1 (92452) - https://sketch.com -->
    <title>Icon left</title>
    <desc>Created with Sketch.</desc>
    <defs>
        <path d="M19.4530885,7.60940216 L4.54687399,7.60940216 C4.42968695,7.60940216 4.33007746,7.56838645 4.24804658,7.48635558 C4.16601571,7.4043247 4.125,7.3047152 4.125,7.18752816 L4.125,6.06253085 C4.125,5.9453438 4.16601571,5.84573431 4.24804658,5.76370343 C4.33007746,5.68167256 4.42968695,5.64065685 4.54687399,5.64065685 L19.4530885,5.64065685 C19.5702755,5.64065685 19.669885,5.68167256 19.7519159,5.76370343 C19.8339467,5.84573431 19.8749624,5.9453438 19.8749624,6.06253085 L19.8749624,7.18752816 C19.8749624,7.3047152 19.8339467,7.4043247 19.7519159,7.48635558 C19.669885,7.56838645 19.5702755,7.60940216 19.4530885,7.60940216 Z M19.4530885,13.2343887 L4.54687399,13.2343887 C4.42968695,13.2343887 4.33007746,13.193373 4.24804658,13.1113422 C4.16601571,13.0293113 4.125,12.9297018 4.125,12.8125148 L4.125,11.6875174 C4.125,11.5703304 4.16601571,11.4707209 4.24804658,11.38869 C4.33007746,11.3066591 4.42968695,11.2656434 4.54687399,11.2656434 L19.4530885,11.2656434 C19.5702755,11.2656434 19.669885,11.3066591 19.7519159,11.38869 C19.8339467,11.4707209 19.8749624,11.5703304 19.8749624,11.6875174 L19.8749624,12.8125148 C19.8749624,12.9297018 19.8339467,13.0293113 19.7519159,13.1113422 C19.669885,13.193373 19.5702755,13.2343887 19.4530885,13.2343887 Z M19.4530885,18.8593753 L4.54687399,18.8593753 C4.42968695,18.8593753 4.33007746,18.8183596 4.24804658,18.7363288 C4.16601571,18.6542979 4.125,18.5546884 4.125,18.4375013 L4.125,17.312504 C4.125,17.195317 4.16601571,17.0957075 4.24804658,17.0136766 C4.33007746,16.9316457 4.42968695,16.89063 4.54687399,16.89063 L19.4530885,16.89063 C19.5702755,16.89063 19.669885,16.9316457 19.7519159,17.0136766 C19.8339467,17.0957075 19.8749624,17.195317 19.8749624,17.312504 L19.8749624,18.4375013 C19.8749624,18.5546884 19.8339467,18.6542979 19.7519159,18.7363288 C19.669885,18.8183596 19.5702755,18.8593753 19.4530885,18.8593753 Z" id="path-1"></path>
    </defs>
    <g id="&lt;!---Generator:-Adobe-Illustrator-24.0.3,-SVG-Export-Plug-In----&gt;-&lt;svg-version=&quot;1.1&quot;-xmlns=&quot;http://www.w3.org/2000/svg&quot;-xmlns:xlink=&quot;http://www.w3.org/1999/xlink&quot;-x=&quot;0px&quot;-y=&quot;0px&quot;-width=&quot;12.9px&quot;---height=&quot;34.1px&quot;-viewBox=&quot;0-0-12.9-34.1&quot;-style=&quot;enable-background:new-0-0-12.9-34.1;&quot;-xml:space=&quot;preserve&quot;&gt;-&lt;style-type=&quot;text/css&quot;&gt;--.st0{fill:#525352;}--.st1{fill:none;}-&lt;/style&gt;-&lt;defs&gt;-&lt;/defs&gt;-&lt;g&gt;--&lt;path-class=&quot;st0&quot;-d=&quot;M6.5,4.2c0.3,0,0.5-0.2,0.5-0.5V0.5C6.9,0.2,6.7,0,6.5,0C6.2,0,6,0.2,6,0.5v3.2C6,4,6.2,4.2,6.5,4.2z&quot;/&gt;--&lt;path-class=&quot;st0&quot;-d=&quot;M10,5.7c0.1,0,0.2,0,0.3-0.1l2.4-2.4c0.2-0.2,0.2-0.5,0-0.7s-0.5-0.2-0.7,0L9.7,4.9C9.5,5,9.5,5.3,9.7,5.5---C9.8,5.6,9.9,5.7,10,5.7z&quot;/&gt;--&lt;path-class=&quot;st0&quot;-d=&quot;M2.6,5.5c0.1,0.1,0.2,0.1,0.3,0.1c0.1,0,0.2,0,0.3-0.1c0.2-0.2,0.2-0.5,0-0.7L0.8,2.4c-0.2-0.2-0.5-0.2-0.7,0---S0,2.9,0.1,3.1L2.6,5.5z&quot;/&gt;--&lt;g&gt;---&lt;rect-x=&quot;2.9&quot;-y=&quot;10.9&quot;-class=&quot;st1&quot;-width=&quot;7.2&quot;-height=&quot;3.3&quot;/&gt;---&lt;path-class=&quot;st1&quot;-d=&quot;M10.8,10V7.5H2.2V10C2.2,10,2.3,10,2.4,10h8.2C10.6,10,10.7,10,10.8,10z&quot;/&gt;---&lt;polygon-class=&quot;st1&quot;-points=&quot;4.4,33.1-8.6,33.1-8.6,33.1-8.6,33-4.4,33---&quot;/&gt;---&lt;rect-x=&quot;4.1&quot;-y=&quot;15.1&quot;-class=&quot;st1&quot;-width=&quot;4.8&quot;-height=&quot;16.9&quot;/&gt;---&lt;rect-x=&quot;9.8&quot;-y=&quot;18.8&quot;-class=&quot;st1&quot;-width=&quot;0&quot;-height=&quot;2.4&quot;/&gt;---&lt;path-class=&quot;st0&quot;-d=&quot;M9.8,21.2v-2.4h0v-1h0v-2.7h0.7v0c0.3,0,0.5-0.2,0.5-0.5v-3.8c0.1,0,0.1,0.1,0.2,0.1c0.3,0,0.5-0.2,0.5-0.5----V7.1c0-0.3-0.2-0.5-0.5-0.5H1.7c-0.3,0-0.5,0.2-0.5,0.5v3.4c0,0.3,0.2,0.5,0.5,0.5c0.1,0,0.2,0,0.2-0.1v3.8c0,0.3,0.2,0.5,0.5,0.5----h0.7v17.4c0,0.2,0.1,0.4,0.3,0.4v0.6c0,0.3,0.2,0.5,0.5,0.5h5.2c0.3,0,0.5-0.2,0.5-0.5V33c0.2-0.1,0.3-0.2,0.3-0.4V22.2h0----L9.8,21.2L9.8,21.2z-M2.4,10c-0.1,0-0.2,0-0.2,0.1V7.5h8.6V10c-0.1,0-0.1-0.1-0.2-0.1H2.4z-M8.6,33.1L8.6,33.1H4.4V33L8.6,33.1----L8.6,33.1z-M8.9,32.1H4.1V15.1h4.8V32.1z-M2.9,14.2v-3.3h7.2v3.3H2.9z&quot;/&gt;--&lt;/g&gt;-&lt;/g&gt;-&lt;/svg&gt;-" stroke="none" stroke-width="1" fill="none" fill-rule="evenodd">
        <g id="e_statements_default" transform="translate(-19.000000, -43.000000)">
            <g id="Icons/Outlined/Dark/Menu" transform="translate(15.000000, 38.000000)">
                <rect id="Rectangle" fill-opacity="0" fill="#FFFFFF" fill-rule="evenodd" x="0" y="0" width="24" height="24"></rect>
                <mask id="mask-2" fill="white">
                    <use xlink:href="#path-1"></use>
                </mask>
                <use id="Menu" fill="#6B8592" fill-rule="nonzero" xlink:href="#path-1"></use>
                <g id="Colours/Icons/Default" mask="url(#mask-2)" fill="#6B8592" fill-rule="evenodd">
                    <rect id="Colour" x="0" y="0" width="24" height="24"></rect>
                </g>
                <rect id="Path" mask="url(#mask-2)" x="0" y="0" width="24" height="24"></rect>
            </g>
        </g>
    </g>
</svg>