<?xml version="1.0" encoding="UTF-8"?>
<svg width="72px" height="72px" viewBox="0 0 72 72" version="1.1" xmlns="http://www.w3.org/2000/svg" xmlns:xlink="http://www.w3.org/1999/xlink">
    <!-- Generator: Sketch 63.1 (92452) - https://sketch.com -->
    <title>Icons/Dialogue/Success</title>
    <desc>Created with Sketch.</desc>
    <defs>
        <path d="M36,72 C55.882251,72 72,55.882251 72,36 C72,16.117749 55.882251,0 36,0 C16.117749,0 0,16.117749 0,36 C0,55.882251 16.117749,72 36,72 Z M36,69 C17.7746033,69 3,54.2253967 3,36 C3,17.7746033 17.7746033,3 36,3 C54.2253967,3 69,17.7746033 69,36 C69,54.2253967 54.2253967,69 36,69 Z M32.1562306,44.578126 L24.3281242,36.7968946 C24.1093745,36.5781448 24,36.2968955 24,35.9531466 C24,35.6093976 24.1093745,35.3281483 24.3281242,35.1093986 L26.0624951,33.4219026 C26.2812448,33.1719034 26.5546814,33.0469035 26.8828056,33.0469035 C27.2109298,33.0469035 27.5,33.1719034 27.7499911,33.4219026 L32.9999785,38.6718901 L44.2499517,27.4219169 C44.4999509,27.1719177 44.7890129,27.0469178 45.1171372,27.0469178 C45.4452614,27.0469178 45.718698,27.1719177 45.9374477,27.4219169 L47.6718186,29.1094129 C47.8905683,29.3281626 47.9999428,29.6094119 47.9999428,29.9531609 C47.9999428,30.2969098 47.8905683,30.5781591 47.6718186,30.7969089 L33.8437265,44.578126 C33.6249768,44.8281252 33.3437275,44.9531251 32.9999785,44.9531251 C32.6562296,44.9531251 32.3749803,44.8281252 32.1562306,44.578126 Z" id="path-1"></path>
    </defs>
    <g id="&lt;!---Generator:-Adobe-Illustrator-24.0.3,-SVG-Export-Plug-In----&gt;-&lt;svg-version=&quot;1.1&quot;-xmlns=&quot;http://www.w3.org/2000/svg&quot;-xmlns:xlink=&quot;http://www.w3.org/1999/xlink&quot;-x=&quot;0px&quot;-y=&quot;0px&quot;-width=&quot;12.9px&quot;---height=&quot;34.1px&quot;-viewBox=&quot;0-0-12.9-34.1&quot;-style=&quot;enable-background:new-0-0-12.9-34.1;&quot;-xml:space=&quot;preserve&quot;&gt;-&lt;style-type=&quot;text/css&quot;&gt;--.st0{fill:#525352;}--.st1{fill:none;}-&lt;/style&gt;-&lt;defs&gt;-&lt;/defs&gt;-&lt;g&gt;--&lt;path-class=&quot;st0&quot;-d=&quot;M6.5,4.2c0.3,0,0.5-0.2,0.5-0.5V0.5C6.9,0.2,6.7,0,6.5,0C6.2,0,6,0.2,6,0.5v3.2C6,4,6.2,4.2,6.5,4.2z&quot;/&gt;--&lt;path-class=&quot;st0&quot;-d=&quot;M10,5.7c0.1,0,0.2,0,0.3-0.1l2.4-2.4c0.2-0.2,0.2-0.5,0-0.7s-0.5-0.2-0.7,0L9.7,4.9C9.5,5,9.5,5.3,9.7,5.5---C9.8,5.6,9.9,5.7,10,5.7z&quot;/&gt;--&lt;path-class=&quot;st0&quot;-d=&quot;M2.6,5.5c0.1,0.1,0.2,0.1,0.3,0.1c0.1,0,0.2,0,0.3-0.1c0.2-0.2,0.2-0.5,0-0.7L0.8,2.4c-0.2-0.2-0.5-0.2-0.7,0---S0,2.9,0.1,3.1L2.6,5.5z&quot;/&gt;--&lt;g&gt;---&lt;rect-x=&quot;2.9&quot;-y=&quot;10.9&quot;-class=&quot;st1&quot;-width=&quot;7.2&quot;-height=&quot;3.3&quot;/&gt;---&lt;path-class=&quot;st1&quot;-d=&quot;M10.8,10V7.5H2.2V10C2.2,10,2.3,10,2.4,10h8.2C10.6,10,10.7,10,10.8,10z&quot;/&gt;---&lt;polygon-class=&quot;st1&quot;-points=&quot;4.4,33.1-8.6,33.1-8.6,33.1-8.6,33-4.4,33---&quot;/&gt;---&lt;rect-x=&quot;4.1&quot;-y=&quot;15.1&quot;-class=&quot;st1&quot;-width=&quot;4.8&quot;-height=&quot;16.9&quot;/&gt;---&lt;rect-x=&quot;9.8&quot;-y=&quot;18.8&quot;-class=&quot;st1&quot;-width=&quot;0&quot;-height=&quot;2.4&quot;/&gt;---&lt;path-class=&quot;st0&quot;-d=&quot;M9.8,21.2v-2.4h0v-1h0v-2.7h0.7v0c0.3,0,0.5-0.2,0.5-0.5v-3.8c0.1,0,0.1,0.1,0.2,0.1c0.3,0,0.5-0.2,0.5-0.5----V7.1c0-0.3-0.2-0.5-0.5-0.5H1.7c-0.3,0-0.5,0.2-0.5,0.5v3.4c0,0.3,0.2,0.5,0.5,0.5c0.1,0,0.2,0,0.2-0.1v3.8c0,0.3,0.2,0.5,0.5,0.5----h0.7v17.4c0,0.2,0.1,0.4,0.3,0.4v0.6c0,0.3,0.2,0.5,0.5,0.5h5.2c0.3,0,0.5-0.2,0.5-0.5V33c0.2-0.1,0.3-0.2,0.3-0.4V22.2h0----L9.8,21.2L9.8,21.2z-M2.4,10c-0.1,0-0.2,0-0.2,0.1V7.5h8.6V10c-0.1,0-0.1-0.1-0.2-0.1H2.4z-M8.6,33.1L8.6,33.1H4.4V33L8.6,33.1----L8.6,33.1z-M8.9,32.1H4.1V15.1h4.8V32.1z-M2.9,14.2v-3.3h7.2v3.3H2.9z&quot;/&gt;--&lt;/g&gt;-&lt;/g&gt;-&lt;/svg&gt;-" stroke="none" stroke-width="1" fill="none" fill-rule="evenodd">
        <g id="Success-QR-Setup" transform="translate(-152.000000, -94.000000)">
            <g id="Icons/Dialogue/Success" transform="translate(152.000000, 94.000000)">
                <rect id="Rectangle" fill-opacity="0" fill="#FFFFFF" fill-rule="evenodd" x="0" y="0" width="72" height="72"></rect>
                <mask id="mask-2" fill="white">
                    <use xlink:href="#path-1"></use>
                </mask>
                <use id="Success" fill="#319988" fill-rule="nonzero" xlink:href="#path-1"></use>
                <g id="🎨-Colour" stroke-width="1" fill-rule="evenodd" mask="url(#mask-2)" fill="#319988">
                    <rect id="Colour" x="0" y="0" width="72" height="72"></rect>
                </g>
            </g>
        </g>
    </g>
</svg>